%YAML 1.1
%TAG !u! tag:unity3d.com,2011:
--- !u!114 &11400000
MonoBehaviour:
  m_ObjectHideFlags: 0
  m_CorrespondingSourceObject: {fileID: 0}
  m_PrefabInstance: {fileID: 0}
  m_PrefabAsset: {fileID: 0}
  m_GameObject: {fileID: 0}
  m_Enabled: 1
  m_EditorHideFlags: 0
  m_Script: {fileID: -1893448595, guid: a040fb66244a7f54289914d98ea4ef7d, type: 3}
  m_Name: EnemyHealth
  m_EditorClassIdentifier: 
  _data:
    _json: '{"graph":{"variables":{"collection":{"$content":[],"$version":"A"},"$version":"A"},"controlInputDefinitions":[],"controlOutputDefinitions":[],"valueInputDefinitions":[],"valueOutputDefinitions":[],"title":"EnemyHealth","summary":null,"pan":{"x":451.0424,"y":192.7609},"zoom":0.25,"elements":[{"coroutine":false,"defaultValues":{"target":null},"position":{"x":-451.0,"y":-114.0},"guid":"24095e24-6436-4d54-b10b-d7a63af958c6","$version":"A","$type":"Bolt.OnTriggerEnter","$id":"9"},{"defaultValues":{},"position":{"x":918.0,"y":240.0},"guid":"1f4be2ba-0530-4d7e-8f17-3bf0560a4095","$version":"A","$type":"Bolt.GenericSubtract","$id":"11"},{"specifyFallback":false,"kind":"Scene","defaultValues":{"name":{"$content":"BulletDamage","$type":"System.String"}},"position":{"x":703.0,"y":254.0},"guid":"9fee88ea-4674-42c7-9314-c0f684ff1e18","$version":"A","$type":"Bolt.GetVariable","$id":"13"},{"type":"UnityEngine.AudioClip","value":{"$content":0,"$type":"UnityEngine.Object"},"defaultValues":{},"position":{"x":316.0,"y":171.0},"guid":"65547c28-8d4a-4a7b-aad5-0247b5b37e00","$version":"A","$type":"Bolt.Literal","$id":"15"},{"chainable":false,"member":{"name":"PlayOneShot","parameterTypes":["UnityEngine.AudioClip"],"targetType":"UnityEngine.AudioSource","targetTypeName":"UnityEngine.AudioSource","$version":"A"},"defaultValues":{"target":null,"%clip":null},"position":{"x":527.0,"y":60.0},"guid":"575bf558-0c91-4e76-8cb0-e2811cdc6665","$version":"A","$type":"Bolt.InvokeMember","$id":"17"},{"specifyFallback":false,"kind":"Object","defaultValues":{"name":{"$content":"IsDead","$type":"System.String"},"object":null},"position":{"x":-373.0,"y":22.0},"guid":"814737e9-9054-4fd4-85b2-69e6b63af34b","$version":"A","$type":"Bolt.GetVariable","$id":"20"},{"defaultValues":{},"position":{"x":1446.0,"y":-5.0},"guid":"6c110e99-bf27-44e6-a6b0-1cefc16800cd","$version":"A","$type":"Bolt.Branch","$id":"22"},{"member":{"name":"isPlaying","parameterTypes":null,"targetType":"UnityEngine.AudioSource","targetTypeName":"UnityEngine.AudioSource","$version":"A"},"defaultValues":{"target":null},"position":{"x":131.0,"y":139.0},"guid":"3f183398-bb10-4777-a826-03decd224da3","$version":"A","$type":"Bolt.GetMember","$id":"24"},{"defaultValues":{},"position":{"x":-158.0,"y":-11.0},"guid":"ada6dac9-6e92-45c0-8050-c0f7b448e60a","$version":"A","$type":"Bolt.Branch","$id":"27"},{"kind":"Object","defaultValues":{"name":{"$content":"Health","$type":"System.String"},"object":null},"position":{"x":1135.0,"y":-18.0},"guid":"a2e7c037-ab3c-4957-bb9d-e167db9db3ff","$version":"A","$type":"Bolt.SetVariable","$id":"29"},{"chainable":false,"member":{"name":"isStopped","parameterTypes":null,"targetType":"UnityEngine.AI.NavMeshAgent","targetTypeName":"UnityEngine.AI.NavMeshAgent","$version":"A"},"defaultValues":{"target":null,"input":{"$content":true,"$type":"System.Boolean"}},"position":{"x":2125.0,"y":-19.0},"guid":"defdd9b0-1d0b-44bb-917c-0ecb99d7a509","$version":"A","$type":"Bolt.SetMember","$id":"31"},{"defaultValues":{},"position":{"x":201.0,"y":1.0},"guid":"8e5026be-3f3a-4604-8beb-1e7f93f6112f","$version":"A","$type":"Bolt.Branch","$id":"34"},{"defaultValues":{},"position":{"x":360.0,"y":-27.0},"guid":"86b4a7c7-2f8e-4726-8659-c9a5fb22a56c","$version":"A","$type":"Bolt.Branch","$id":"36"},{"specifyFallback":false,"kind":"Object","defaultValues":{"name":{"$content":"Health","$type":"System.String"},"object":null},"position":{"x":717.0,"y":85.0},"guid":"227d2e3e-391f-4f19-a392-77cf4724d881","$version":"A","$type":"Bolt.GetVariable","$id":"38"},{"chainable":false,"member":{"name":"CompareTag","parameterTypes":["System.String"],"targetType":"UnityEngine.GameObject","targetTypeName":"UnityEngine.GameObject","$version":"A"},"defaultValues":{"target":null,"%tag":{"$content":"Projectile","$type":"System.String"}},"position":{"x":-20.0,"y":-2.0},"guid":"df4021f2-3d07-4900-aab4-91bbb6fdd585","$version":"A","$type":"Bolt.InvokeMember","$id":"40"},{"numeric":true,"defaultValues":{"b":{"$content":0.0,"$type":"System.Single"}},"position":{"x":1162.0,"y":169.0},"guid":"0f0dcc08-eda9-4cb7-bf90-cc497787a6d2","$version":"A","$type":"Bolt.LessOrEqual","$id":"43"},{"chainable":false,"member":{"name":"PlayOneShot","parameterTypes":["UnityEngine.AudioClip"],"targetType":"UnityEngine.AudioSource","targetTypeName":"UnityEngine.AudioSource","$version":"A"},"defaultValues":{"target":null,"%clip":null},"position":{"x":1672.0,"y":-18.0},"guid":"b4d4f272-e0d0-4752-8981-20d5077bb202","$version":"A","$type":"Bolt.InvokeMember","$id":"45"},{"type":"UnityEngine.AudioClip","value":{"$content":1,"$type":"UnityEngine.Object"},"defaultValues":{},"position":{"x":1422.0,"y":183.0},"guid":"a0947a5d-f21c-44e4-96fe-80afe94d15de","$version":"A","$type":"Bolt.Literal","$id":"48"},{"kind":"Object","defaultValues":{"name":{"$content":"IsDead","$type":"System.String"},"object":null},"position":{"x":1921.0,"y":-21.0},"guid":"e97b8564-5781-437e-a59e-058da381b84e","$version":"A","$type":"Bolt.SetVariable","$id":"50"},{"type":"System.Boolean","value":{"$content":true,"$type":"System.Boolean"},"defaultValues":{},"position":{"x":1789.0,"y":173.0},"guid":"141c0ca2-d945-4b29-aec7-77e36844cccc","$version":"A","$type":"Bolt.Literal","$id":"52"},{"sourceUnit":{"$ref":"9"},"sourceKey":"trigger","destinationUnit":{"$ref":"27"},"destinationKey":"enter","guid":"f6fde244-ede8-4179-ab59-641c5d51bfa5","$type":"Bolt.ControlConnection"},{"sourceUnit":{"$ref":"36"},"sourceKey":"ifFalse","destinationUnit":{"$ref":"17"},"destinationKey":"enter","guid":"ccc13b83-6c04-4c7d-b1d7-0f5de806794b","$type":"Bolt.ControlConnection"},{"sourceUnit":{"$ref":"45"},"sourceKey":"exit","destinationUnit":{"$ref":"50"},"destinationKey":"assign","guid":"5794a917-95b7-4b1d-90d1-ed5ffb4992b2","$type":"Bolt.ControlConnection"},{"sourceUnit":{"$ref":"22"},"sourceKey":"ifTrue","destinationUnit":{"$ref":"45"},"destinationKey":"enter","guid":"80e467f2-80c5-4fcf-9d42-a7868182ca5f","$type":"Bolt.ControlConnection"},{"sourceUnit":{"$ref":"29"},"sourceKey":"assigned","destinationUnit":{"$ref":"22"},"destinationKey":"enter","guid":"f9c383bf-f524-45e6-bccb-25443d90cb26","$type":"Bolt.ControlConnection"},{"sourceUnit":{"$ref":"17"},"sourceKey":"exit","destinationUnit":{"$ref":"29"},"destinationKey":"assign","guid":"8afcbbed-8dc5-4114-ab0e-359b5de1328e","$type":"Bolt.ControlConnection"},{"sourceUnit":{"$ref":"27"},"sourceKey":"ifFalse","destinationUnit":{"$ref":"40"},"destinationKey":"enter","guid":"358b0227-4f76-4e6f-94bb-d8197ddedfd6","$type":"Bolt.ControlConnection"},{"sourceUnit":{"$ref":"40"},"sourceKey":"exit","destinationUnit":{"$ref":"34"},"destinationKey":"enter","guid":"a0de2f73-b1c7-4484-bf5c-8730abe31a70","$type":"Bolt.ControlConnection"},{"sourceUnit":{"$ref":"34"},"sourceKey":"ifTrue","destinationUnit":{"$ref":"36"},"destinationKey":"enter","guid":"f0a64190-805c-4c25-9281-9831fcb7f1ea","$type":"Bolt.ControlConnection"},{"sourceUnit":{"$ref":"50"},"sourceKey":"assigned","destinationUnit":{"$ref":"31"},"destinationKey":"assign","guid":"9ca290e5-262f-40e6-b600-4f4a42a3314a","$type":"Bolt.ControlConnection"},{"sourceUnit":{"$ref":"36"},"sourceKey":"ifTrue","destinationUnit":{"$ref":"29"},"destinationKey":"assign","guid":"a0397db3-766c-4c45-8e29-625f106aaeeb","$type":"Bolt.ControlConnection"},{"sourceUnit":{"$ref":"38"},"sourceKey":"value","destinationUnit":{"$ref":"43"},"destinationKey":"a","guid":"30fe7ce5-48b4-4033-91c8-414de22b1ab1","$type":"Bolt.ValueConnection"},{"sourceUnit":{"$ref":"11"},"sourceKey":"difference","destinationUnit":{"$ref":"29"},"destinationKey":"input","guid":"8efc4e30-2d20-433b-90d5-738530141246","$type":"Bolt.ValueConnection"},{"sourceUnit":{"$ref":"9"},"sourceKey":"collider","destinationUnit":{"$ref":"40"},"destinationKey":"target","guid":"f2531c92-7a3e-4efe-ac0d-49cfbe2f55c8","$type":"Bolt.ValueConnection"},{"sourceUnit":{"$ref":"38"},"sourceKey":"value","destinationUnit":{"$ref":"11"},"destinationKey":"minuend","guid":"ea5e0b82-f938-4800-81fd-9a486bda209f","$type":"Bolt.ValueConnection"},{"sourceUnit":{"$ref":"15"},"sourceKey":"output","destinationUnit":{"$ref":"17"},"destinationKey":"%clip","guid":"ea185313-954c-48d0-a66a-ecfa3113b35c","$type":"Bolt.ValueConnection"},{"sourceUnit":{"$ref":"24"},"sourceKey":"value","destinationUnit":{"$ref":"36"},"destinationKey":"condition","guid":"2f495d83-62fd-43cb-b453-f6f5824d4335","$type":"Bolt.ValueConnection"},{"sourceUnit":{"$ref":"43"},"sourceKey":"comparison","destinationUnit":{"$ref":"22"},"destinationKey":"condition","guid":"135aac43-8795-43f2-ae56-a8a6908aa328","$type":"Bolt.ValueConnection"},{"sourceUnit":{"$ref":"20"},"sourceKey":"value","destinationUnit":{"$ref":"27"},"destinationKey":"condition","guid":"3a806a2f-3eda-4894-a072-40560623729f","$type":"Bolt.ValueConnection"},{"sourceUnit":{"$ref":"13"},"sourceKey":"value","destinationUnit":{"$ref":"11"},"destinationKey":"subtrahend","guid":"5d36c91c-2b88-42c9-864d-a7c66ad01a4a","$type":"Bolt.ValueConnection"},{"sourceUnit":{"$ref":"40"},"sourceKey":"result","destinationUnit":{"$ref":"34"},"destinationKey":"condition","guid":"81296306-f8f6-4567-9bf8-b1f2b2352456","$type":"Bolt.ValueConnection"},{"sourceUnit":{"$ref":"48"},"sourceKey":"output","destinationUnit":{"$ref":"45"},"destinationKey":"%clip","guid":"a01ee726-e128-4151-9464-653f1ef294aa","$type":"Bolt.ValueConnection"},{"sourceUnit":{"$ref":"52"},"sourceKey":"output","destinationUnit":{"$ref":"50"},"destinationKey":"input","guid":"baa63c26-4118-4a7c-9b24-43cbfd285d54","$type":"Bolt.ValueConnection"}],"$version":"A"}}'
    _objectReferences:
    - {fileID: 8300000, guid: 7dd8ba5917ca8514481a48acf8ff4c77, type: 3}
    - {fileID: 8300000, guid: 84e1cf0e5dff35745b6881671cec1a7e, type: 3}
