%YAML 1.1
%TAG !u! tag:unity3d.com,2011:
--- !u!114 &11400000
MonoBehaviour:
  m_ObjectHideFlags: 0
  m_CorrespondingSourceObject: {fileID: 0}
  m_PrefabInstance: {fileID: 0}
  m_PrefabAsset: {fileID: 0}
  m_GameObject: {fileID: 0}
  m_Enabled: 1
  m_EditorHideFlags: 0
  m_Script: {fileID: -1893448595, guid: a040fb66244a7f54289914d98ea4ef7d, type: 3}
  m_Name: PlayerMovement
  m_EditorClassIdentifier: 
  _data:
    _json: '{"graph":{"variables":{"collection":{"$content":[],"$version":"A"},"$version":"A"},"controlInputDefinitions":[],"controlOutputDefinitions":[],"valueInputDefinitions":[],"valueOutputDefinitions":[],"title":"Movement","summary":null,"pan":{"x":-91.62393,"y":-194.0522},"zoom":0.9,"elements":[{"coroutine":false,"defaultValues":{},"position":{"x":-367.0,"y":-125.0},"guid":"62ff22f1-4856-4177-ab16-cfd3d39ad8f2","$version":"A","$type":"Bolt.Update","$id":"9"},{"type":"UnityEngine.LayerMask","value":{"value":256,"$type":"UnityEngine.LayerMask"},"defaultValues":{},"position":{"x":214.0,"y":34.0},"guid":"d78d0fa4-3eed-4b82-bb38-2ef4ce95c1f2","$version":"A","$type":"Bolt.Literal","$id":"11"},{"chainable":false,"member":{"name":"ScreenPointToRay","parameterTypes":["UnityEngine.Vector3"],"targetType":"UnityEngine.Camera","targetTypeName":"UnityEngine.Camera","$version":"A"},"defaultValues":{"target":null,"%pos":{"x":0.0,"y":0.0,"z":0.0,"$type":"UnityEngine.Vector3"}},"position":{"x":165.0,"y":-123.0},"guid":"1bd0c4f2-9be6-471c-bcbd-70b4fa6a49cd","$version":"A","$type":"Bolt.InvokeMember","$id":"13"},{"member":{"name":"gameObject","parameterTypes":null,"targetType":"UnityEngine.GameObject","targetTypeName":"UnityEngine.GameObject","$version":"A"},"defaultValues":{"target":null},"position":{"x":-401.0,"y":-287.0},"guid":"5647ead6-6190-48d6-914a-c114fc20a4d4","$version":"A","$type":"Bolt.GetMember","$id":"16"},{"chainable":false,"member":{"name":"GetMouseButton","parameterTypes":["System.Int32"],"targetType":"UnityEngine.Input","targetTypeName":"UnityEngine.Input","$version":"A"},"defaultValues":{"%button":{"$content":0,"$type":"System.Int32"}},"position":{"x":-211.0,"y":-125.0},"guid":"cf164577-8206-478d-9011-7476e318a45c","$version":"A","$type":"Bolt.InvokeMember","$id":"19"},{"defaultValues":{},"position":{"x":-2.0,"y":-125.0},"guid":"dec71526-8b87-44d2-adfe-bd2426402512","$version":"A","$type":"Bolt.Branch","$id":"22"},{"chainable":false,"member":{"name":"SetDestination","parameterTypes":["UnityEngine.Vector3"],"targetType":"UnityEngine.AI.NavMeshAgent","targetTypeName":"UnityEngine.AI.NavMeshAgent","$version":"A"},"defaultValues":{"target":null,"%target":{"x":0.0,"y":0.0,"z":0.0,"$type":"UnityEngine.Vector3"}},"position":{"x":817.0,"y":-124.0},"guid":"4f96ed14-1d34-488d-bb6b-a2eff74ecc5b","$version":"A","$type":"Bolt.InvokeMember","$id":"24"},{"kind":"Scene","defaultValues":{"name":{"$content":"player","$type":"System.String"}},"position":{"x":-137.0,"y":-395.0},"guid":"55fc3d1a-8e55-4db7-ace0-8bb2d96ab6c9","$version":"A","$type":"Bolt.SetVariable","$id":"27"},{"defaultValues":{},"position":{"x":666.0,"y":-121.0},"guid":"655fc5b5-38d7-4439-9c5e-fe95f13987da","$version":"A","$type":"Bolt.Branch","$id":"29"},{"chainable":false,"member":{"name":"Raycast","parameterTypes":["UnityEngine.Ray","UnityEngine.RaycastHit&","System.Single","System.Int32"],"targetType":"UnityEngine.Physics","targetTypeName":"UnityEngine.Physics","$version":"A"},"defaultValues":{"%ray":{"origin":{"x":0.0,"y":0.0,"z":0.0},"direction":{"x":0.0,"y":0.0,"z":0.0},"$type":"UnityEngine.Ray"},"%maxDistance":{"$content":150.0,"$type":"System.Single"},"%layerMask":{"$content":0,"$type":"System.Int32"}},"position":{"x":388.0,"y":-119.0},"guid":"d60830b8-df59-4408-8763-0bbc1699223b","$version":"A","$type":"Bolt.InvokeMember","$id":"31"},{"member":{"name":"point","parameterTypes":null,"targetType":"UnityEngine.RaycastHit","targetTypeName":"UnityEngine.RaycastHit","$version":"A"},"defaultValues":{},"position":{"x":652.0,"y":12.0},"guid":"9211f029-13da-4be4-a660-8d793bc3c512","$version":"A","$type":"Bolt.GetMember","$id":"34"},{"member":{"name":"main","parameterTypes":null,"targetType":"UnityEngine.Camera","targetTypeName":"UnityEngine.Camera","$version":"A"},"defaultValues":{},"position":{"x":-8.0,"y":24.0},"guid":"3ebb8697-b0aa-4e19-a954-6f72295e3f60","$version":"A","$type":"Bolt.GetMember","$id":"37"},{"member":{"name":"mousePosition","parameterTypes":null,"targetType":"UnityEngine.Input","targetTypeName":"UnityEngine.Input","$version":"A"},"defaultValues":{},"position":{"x":-60.0,"y":121.0},"guid":"39869a24-74fe-455e-9b37-2d3fec8420b3","$version":"A","$type":"Bolt.GetMember","$id":"40"},{"coroutine":false,"defaultValues":{},"position":{"x":-335.0,"y":-392.0},"guid":"63cc8554-d3cc-44fb-955c-86516da66753","$version":"A","$type":"Bolt.Start","$id":"43"},{"sourceUnit":{"$ref":"19"},"sourceKey":"exit","destinationUnit":{"$ref":"22"},"destinationKey":"enter","guid":"8b386ca4-f87f-48ae-852d-e700090957eb","$type":"Bolt.ControlConnection"},{"sourceUnit":{"$ref":"29"},"sourceKey":"ifTrue","destinationUnit":{"$ref":"24"},"destinationKey":"enter","guid":"356adbf1-26c0-4ee7-9e2d-4a929089b607","$type":"Bolt.ControlConnection"},{"sourceUnit":{"$ref":"9"},"sourceKey":"trigger","destinationUnit":{"$ref":"19"},"destinationKey":"enter","guid":"796749dc-21c2-4374-84de-bfb9f4ef9de3","$type":"Bolt.ControlConnection"},{"sourceUnit":{"$ref":"22"},"sourceKey":"ifTrue","destinationUnit":{"$ref":"13"},"destinationKey":"enter","guid":"e0a8eaa6-0630-411d-9416-55c58a35c1b2","$type":"Bolt.ControlConnection"},{"sourceUnit":{"$ref":"13"},"sourceKey":"exit","destinationUnit":{"$ref":"31"},"destinationKey":"enter","guid":"59cb4217-cfc1-4778-a047-214666d8b5f9","$type":"Bolt.ControlConnection"},{"sourceUnit":{"$ref":"31"},"sourceKey":"exit","destinationUnit":{"$ref":"29"},"destinationKey":"enter","guid":"85e18518-806c-4764-9214-615e1337a855","$type":"Bolt.ControlConnection"},{"sourceUnit":{"$ref":"43"},"sourceKey":"trigger","destinationUnit":{"$ref":"27"},"destinationKey":"assign","guid":"b5da01eb-2959-49d8-ac33-5e0fcb7b6c0c","$type":"Bolt.ControlConnection"},{"sourceUnit":{"$ref":"31"},"sourceKey":"&hitInfo","destinationUnit":{"$ref":"34"},"destinationKey":"target","guid":"bfd0f7f9-0800-42d2-bc0b-ce3ac1a57708","$type":"Bolt.ValueConnection"},{"sourceUnit":{"$ref":"37"},"sourceKey":"value","destinationUnit":{"$ref":"13"},"destinationKey":"target","guid":"0c3722f2-fe52-4486-80c8-c66469ebfd31","$type":"Bolt.ValueConnection"},{"sourceUnit":{"$ref":"19"},"sourceKey":"result","destinationUnit":{"$ref":"22"},"destinationKey":"condition","guid":"cc97b0bb-95d9-44b2-a9f5-0d3313e9f11a","$type":"Bolt.ValueConnection"},{"sourceUnit":{"$ref":"40"},"sourceKey":"value","destinationUnit":{"$ref":"13"},"destinationKey":"%pos","guid":"9b1479f4-0a4c-4513-a62b-26be98cd08d9","$type":"Bolt.ValueConnection"},{"sourceUnit":{"$ref":"13"},"sourceKey":"result","destinationUnit":{"$ref":"31"},"destinationKey":"%ray","guid":"5f718ba0-6170-4c7e-8d7c-bce4594f3d91","$type":"Bolt.ValueConnection"},{"sourceUnit":{"$ref":"11"},"sourceKey":"output","destinationUnit":{"$ref":"31"},"destinationKey":"%layerMask","guid":"fa320109-fc0d-4412-87b6-c87244919849","$type":"Bolt.ValueConnection"},{"sourceUnit":{"$ref":"31"},"sourceKey":"result","destinationUnit":{"$ref":"29"},"destinationKey":"condition","guid":"2f3a1f84-7ca5-41dd-b64b-1e95826eb33c","$type":"Bolt.ValueConnection"},{"sourceUnit":{"$ref":"34"},"sourceKey":"value","destinationUnit":{"$ref":"24"},"destinationKey":"%target","guid":"389527c3-d144-4f40-a1ad-eb50d6392264","$type":"Bolt.ValueConnection"},{"sourceUnit":{"$ref":"16"},"sourceKey":"value","destinationUnit":{"$ref":"27"},"destinationKey":"input","guid":"2f6888eb-acf7-4559-b298-b2dba89b9b9e","$type":"Bolt.ValueConnection"}],"$version":"A"}}'
    _objectReferences: []
